shijian,job id,task id,event,prior,cpu,mem,end time
0,6176871439,1470,1,1,0.01874,0.003887,175144
0,6221861800,5290,1,0,0.0125,0.0159,12401.85
0,6221861800,10176,1,0,0.0125,0.0159,12401.85
0,6221861800,11366,1,0,0.0125,0.0159,12401.85
0,6238843875,97,1,9,0.03125,0.02795,80805.2
0,6251639598,21,1,0,0.0006247,0.003109,13348.3
760.96,6251672941,941,1,2,0.02499,0.03339,1239.12
1442.2,6251726235,7,1,2,0.02499,0.02545,3147.52
1587.14,6251750508,36,1,2,0.0125,0.004662,1793.5
1601.64,6251754480,303,1,2,0.03125,0.007767,1743.93
2151.67,6251795690,589,1,2,0.02499,0.03339,3141.16
5640.47,6252020538,21,1,9,0.01094,0.06201,11894.39
7912.55,6114773114,1363,1,0,0.0125,0.007767,41267.3
8292.49,6252153837,9,1,2,0.009369,0.002331,8647.19
10700.68,6252284914,357,1,2,0.02499,0.03339,11296.84
11311.86,6252284914,196,1,2,0.02499,0.03339,11665.88
12401.85,6252372423,670,1,1,0.0125,0.02298,38390.38
12401.85,6252358260,1856,1,1,0.0125,0.02457,62094.34
12424.12,6221861800,734,1,0,0.0125,0.0159,38390.38
12987.89,6252417805,306,1,2,0.006248,0.002487,13060.52
13375.08,6252436718,558,1,0,0.0125,0.0318,13431.78
13703.97,6252469765,1870,1,2,0.009064,0.04773,14575.99
14335.14,6221861800,17601,1,0,0.0125,0.0159,38390.38
14578.02,6252469765,1291,1,2,0.009064,0.04773,14627.72
14641.36,6252554626,40,1,2,0.0125,0.004662,14856.76
15846.06,6252638420,723,1,2,0.02499,0.03339,19007.76
19398.05,6238340468,2942,1,0,0.0625,0.03961,32523.77
28078.43,6253402286,486,1,0,0.0125,0.0318,32523.77
29203.2,6253424168,1086,1,2,0.02374,0.02545,31893.52
32358.09,6253630606,1676,1,1,0.0625,0.0318,38390.38
32523.77,6253644542,3244,1,2,0.03748,0.02545,33496.32
33237.22,6249834537,150,1,0,0.05627,0.0202,38323.78
35054.15,6253402286,430,1,0,0.0125,0.0318,38323.78
38323.78,6253989692,2058,1,2,0.04999,0.03979,48077.62
38390.38,6253989692,10409,1,2,0.04999,0.03979,47865.59
38505.88,4474140233,8,1,0,0.01874,0.006958,41267.3
39915.54,6254157650,11,1,0,0.03308,0.002953,40098.29
40583.76,6221861800,3969,1,0,0.0125,0.0159,41267.3
41267.3,6254223915,775,1,2,0.09998,0.02069,41441.62
41444.52,6221861800,2569,1,0,0.0125,0.0159,66106.19
42401.49,6254308645,23,1,1,0.0625,0.0318,47712.33
43043.7,6254359572,79,1,0,0.01562,0.02158,46935.31
45214.52,6254436105,63,1,0,0.006248,0.01166,45479.04
45957.7,6249834537,546,1,0,0.05627,0.0202,47915.41
47915.41,6254633068,1361,1,2,0.0625,0.0318,48520.72
47921.72,5567180387,19,1,0,0.05627,0.0318,66106.19
48079.24,6221861800,10120,1,0,0.0125,0.0159,50536.21
48467.93,6252901355,621,1,0,0.03748,0.03119,50536.21
48522.68,6238340468,896,1,0,0.0625,0.03961,50536.21
49337.12,6254794245,95,1,2,0.006248,0.01109,49533.27
50536.21,6254869357,7415,1,2,0.03748,0.03979,52547.87
50536.21,6254869357,5482,1,2,0.03748,0.03979,52589.16
50555.16,4474140233,10,1,0,0.01874,0.006958,73743.39
52590.76,6238340468,1882,1,0,0.0625,0.03961,66106.19
53064.7,6221861800,17261,1,0,0.0125,0.0159,66106.19
53837.57,6221861800,6778,1,0,0.0125,0.0159,66106.19
66106.19,6256014611,1113,1,1,0.0125,0.02457,175210
66106.19,6256018813,834,1,1,0.0125,0.02298,134367
66107.94,6221861800,2784,1,0,0.0125,0.0159,71312.8
66140.41,6221861800,7476,1,0,0.0125,0.0159,71312.8
66182.55,6256035888,45,1,4,0,0.01514,70431.28
66510.43,6256069767,201,1,4,0.03125,0.007767,66687.77
67126.7,6252901355,1011,1,0,0.03748,0.03119,67172.49
67272.96,6249834537,530,1,0,0.05627,0.0202,71312.8
71312.8,6256412025,825,1,4,0.0625,0.0318,71544.91
71550.49,6238340468,1808,1,0,0.0625,0.03961,71809.27
71589.92,6221861800,19074,1,0,0.0125,0.0159,71809.27
71809.27,6256495306,557,1,4,0.0625,0.0318,72094.91
72100,6238340468,1186,1,0,0.0625,0.03961,72389.36
72156.93,6221861800,506,1,0,0.0125,0.0159,72389.36
72389.36,6256547913,425,1,4,0.0625,0.0318,72516.06
72520.82,6238340468,962,1,0,0.0625,0.03961,72587.81
72587.81,6256566081,374,1,4,0.0625,0.0318,73645.92
73377.83,6256663894,6,1,4,0,0.01514,77540.03
73650.9,5567180387,117,1,0,0.05627,0.0318,73743.39
73743.39,6256691834,8,1,4,0.0625,0.0318,73829.15
73834.93,6238340468,142,1,0,0.0625,0.03961,74097.61
74097.61,6256747240,27,1,4,0.0625,0.0318,74187.23
74189.49,6238340468,1071,1,0,0.0625,0.03961,74277.3
74277.3,6256800162,62,1,4,0.0625,0.0318,74443.73
74445.52,6221861800,9496,1,0,0.0125,0.0159,74502.67
74445.52,6221861800,9651,1,0,0.0125,0.0159,74502.67
74502.67,6256826560,764,1,4,0.0625,0.03107,74626.82
74630.1,6238340468,944,1,0,0.0625,0.03961,74711.38
74711.38,6256847279,942,1,4,0.0625,0.03107,74903.28
74897.69,6256865129,131,1,0,0.009369,0.008804,75006.72
74905.69,6238340468,1420,1,0,0.0625,0.03961,75006.72
75006.72,6256870832,86,1,4,0.0625,0.0318,75055.29
75061.04,6238340468,1606,1,0,0.0625,0.03961,75325.95
75233.71,6221861800,9336,1,0,0.0125,0.0159,75325.95
75325.95,6256896226,107,1,4,0.0625,0.0318,75465.56
75467.28,6238340468,2433,1,0,0.0625,0.03961,83027.08
75886.97,6221861800,6694,1,0,0.0125,0.0159,87123.04
77353.69,4474140233,3,1,0,0.01874,0.006958,89173.79
80559.62,6257330775,19,1,4,0,0.01514,85935.22
83027.08,6257506517,876,1,4,0.0625,0.03107,83148.76
83152.22,6238340468,1893,1,0,0.0625,0.03961,85480.2
85480.2,6257749887,50,1,4,0.02499,0.02545,88451.42
85480.2,6257745186,1820,1,4,0.02499,0.02121,85757.65
85656.61,6257804812,20,1,4,0.0125,0.004662,85916.01
85763.75,6221861800,17000,1,0,0.0125,0.0159,87123.04
86274.25,6114773114,1101,1,0,0.0125,0.007767,87123.04
87123.04,6258002219,892,1,4,0.02499,0.03339,87754.12
87895.43,6221861800,11688,1,0,0.0125,0.0159,89173.79
88453.1,6238340468,455,1,0,0.0625,0.03961,88578.85
88578.85,6258142523,1467,1,4,0.02499,0.02545,90909.65
88581.11,6221861800,1193,1,0,0.0125,0.0159,88645.86
88645.86,6258156550,93,1,4,0.02499,0.02545,89173.79
89173.79,6258211597,811,1,4,0.02499,0.03339,90152.62
89176.63,6221861800,10542,1,0,0.0125,0.0159,94520.68
90580.78,6221861800,11980,1,0,0.0125,0.0159,91952.27
90978.54,6221861800,14483,1,0,0.0125,0.0159,91066.51
91066.51,6258399654,752,1,4,0.02499,0.03339,91528.65
91515.47,6221861800,17151,1,0,0.0125,0.0159,91952.27
91952.27,6258478512,384,1,4,0.0625,0.0318,92176.65
92178.78,6221861800,16322,1,0,0.0125,0.0159,92567.54
92178.78,6238340468,296,1,0,0.0625,0.03961,92567.54
92567.54,6258604198,186,1,4,0.0625,0.0318,92697.95
92699.93,6238340468,184,1,0,0.0625,0.03961,93240.48
92802.59,6221861800,12094,1,0,0.0125,0.0159,93240.48
93240.48,6258693850,213,1,4,0.0625,0.0318,93341.75
93344.69,6238340468,262,1,0,0.0625,0.03961,93632.72
93345.84,6221861800,13665,1,0,0.0125,0.0159,93383.88
93387.14,6221861800,6228,1,0,0.0125,0.0159,93426.89
93429.19,6221861800,13814,1,0,0.0125,0.0159,93470.4
93473.23,6221861800,18598,1,0,0.0125,0.0159,93512.85
93516.99,6221861800,13134,1,0,0.0125,0.0159,93557.54
93570.81,6258764604,372,1,4,0.0125,0.00795,93840.68
93632.72,6258771758,279,1,4,0.02499,0.03339,94110.21
93844.46,6221861800,6976,1,0,0.0125,0.0159,93882.63
93884.79,6221861800,6488,1,0,0.0125,0.0159,93928.94
93931.11,6221861800,6976,1,0,0.0125,0.0159,93974.7
93976.9,6221861800,6981,1,0,0.0125,0.0159,94022.72
94025.19,6221861800,7250,1,0,0.0125,0.0159,94087.03
94089.45,6221861800,11085,1,0,0.0125,0.0159,94134.36
94117.02,6238340468,1212,1,0,0.0625,0.03961,94318.56
94138.86,6221861800,8323,1,0,0.0125,0.0159,94173.01
94175.72,6221861800,12310,1,0,0.0125,0.0159,94222.51
94224.74,6221861800,13915,1,0,0.0125,0.0159,94268.51
94274.29,6221861800,15333,1,0,0.0125,0.0159,94330.57
94318.56,6258913059,979,1,4,0.02499,0.03339,94418.04
94323.69,4474140233,2,1,0,0.01874,0.006958,94869.94
94338.97,6221861800,2816,1,0,0.0125,0.0159,94368.42
94373.52,6221861800,9841,1,0,0.0125,0.0159,94418.04
94420.38,6257655536,2351,1,0,0.02249,0.0575,94469.8
94520.68,6258955209,456,1,4,0.0625,0.0318,94777.79
94783.01,6221861800,14762,1,0,0.0125,0.0159,94815.62
94826.63,6221861800,7490,1,0,0.0125,0.0159,94869.94
94869.94,6259035931,253,1,4,0.0625,0.0318,94964.2
94966.65,6221861800,7845,1,0,0.0125,0.0159,95019.15
94966.65,6221861800,8200,1,0,0.0125,0.0159,95019.15
95017.06,4474140233,4,1,0,0.01874,0.006958,95139.31
95023.26,6221861800,6658,1,0,0.0125,0.0159,95060.59
95023.26,6221861800,12115,1,0,0.0125,0.0159,95060.59
95081.21,6221861800,1305,1,0,0.0125,0.0159,95126.02
95089.44,6221861800,10978,1,0,0.0125,0.0159,95139.31
95139.31,6259103867,254,1,4,0.0625,0.0318,95359.57
95364.33,6221861800,1122,1,0,0.0125,0.0159,95404.57
95376.93,6258980546,710,1,4,0.02499,0.03339,96320.04
95409.41,6221861800,1437,1,0,0.0125,0.0159,95453.29
95431.97,6221861800,2513,1,0,0.0125,0.0159,95465.68
95546.36,6221861800,842,1,0,0.0125,0.0159,95586.62
95546.37,6221861800,4904,1,0,0.0125,0.0159,95586.62
95599.18,6259225956,397,1,4,0.02499,0.02545,96191.7
95855.36,6259288711,72,1,4,0.006828,0.005394,99404.12
96326.74,6259380197,172,1,4,0.006454,0.002487,96416.05
96482.4,6259411104,142,1,4,0.02982,0.01222,97861.72
96482.42,6221861800,368,1,0,0.0125,0.0159,96515.65
96499.85,6221861800,5390,1,0,0.0125,0.0159,96529.72
96600.5,6221861800,276,1,0,0.0125,0.0159,96636.82
96600.53,6221861800,5468,1,0,0.0125,0.0159,96636.82
96697.58,6221861800,3889,1,0,0.0125,0.0159,96741.95
96720.93,6221861800,12046,1,0,0.0125,0.0159,96768.15
96803.79,6221861800,2007,1,0,0.0125,0.0159,96838.48
96803.81,6221861800,4734,1,0,0.0125,0.0159,96838.48
96878.48,6221861800,3370,1,0,0.0125,0.0159,96914.9
96878.49,6221861800,6068,1,0,0.0125,0.0159,96914.9
96924.17,6221861800,1394,1,0,0.0125,0.0159,96968.48
96947.22,6221861800,8191,1,0,0.0125,0.0159,96998.21
97028.43,6221861800,3488,1,0,0.0125,0.0159,97071.54
97041.65,6221861800,13002,1,0,0.0125,0.0159,97085.02
97081.25,6221861800,4404,1,0,0.0125,0.0159,97105.96
97107.99,6221861800,9005,1,0,0.0125,0.0159,97154.3
97131.28,6221861800,6802,1,0,0.0125,0.0159,97166.6
97220.14,4474140233,6,1,0,0.01874,0.006958,99710.76
97263.08,6221861800,1374,1,0,0.0125,0.0159,97288.37
97295.64,6221861800,3637,1,0,0.0125,0.0159,97332.42
97344.42,6221861800,3109,1,0,0.0125,0.0159,97377.53
97385.12,6221861800,2443,1,0,0.0125,0.0159,97420.87
97471.71,6221861800,2219,1,0,0.0125,0.0159,97514.88
97533.15,6221861800,3436,1,0,0.0125,0.0159,97562.4
97568.76,6221861800,2978,1,0,0.0125,0.0159,97606.77
97623.68,6221861800,1587,1,0,0.0125,0.0159,97684.92
97623.69,6221861800,4741,1,0,0.0125,0.0159,97684.92
97695.31,6221861800,5419,1,0,0.0125,0.0159,97759.73
97695.31,6221861800,6798,1,0,0.0125,0.0159,97759.73
97767.17,6221861800,2864,1,0,0.0125,0.0159,97820.67
97767.17,6221861800,4634,1,0,0.0125,0.0159,97820.67
97839.17,6221861800,4720,1,0,0.0125,0.0159,97901.51
97839.17,6221861800,5517,1,0,0.0125,0.0159,97901.51
97914.74,6259748281,66,1,4,0.0625,0.0318,98091.43
98099.29,6221861800,10619,1,0,0.0125,0.0159,98158.41
98099.29,6221861800,10620,1,0,0.0125,0.0159,98158.41
98158.41,6259846143,79,1,4,0.0625,0.0318,98363.01
98167.11,6221861800,2377,1,0,0.0125,0.0159,98198.14
98201.7,6221861800,3015,1,0,0.0125,0.0159,98244.98
98376.4,6221861800,1674,1,0,0.0125,0.0159,98420.96
98376.4,6221861800,4191,1,0,0.0125,0.0159,98420.96
98424.05,6221861800,2496,1,0,0.0125,0.0159,98479.29
98424.05,6221861800,4101,1,0,0.0125,0.0159,98479.29
98482.08,6221861800,2534,1,0,0.0125,0.0159,98536.69
98482.08,6221861800,2690,1,0,0.0125,0.0159,98536.69
98536.69,6259946348,175,1,4,0.0625,0.0318,98677.85
98685.07,6221861800,2432,1,0,0.0125,0.0159,98761.96
98685.08,6221861800,9992,1,0,0.0125,0.0159,98761.96
98768.84,6221861800,1504,1,0,0.0125,0.0159,98829.4
98768.84,6221861800,5650,1,0,0.0125,0.0159,98829.4
98837.1,6221861800,2318,1,0,0.0125,0.0159,98897.89
98837.1,6221861800,5846,1,0,0.0125,0.0159,98897.89
98973.55,6221861800,1200,1,0,0.0125,0.0159,99021.07
98973.65,6221861800,14783,1,0,0.0125,0.0159,99021.07
99036.33,6221861800,5184,1,0,0.0125,0.0159,99101.75
99036.34,6221861800,8537,1,0,0.0125,0.0159,99101.75
99113.29,6221861800,5035,1,0,0.0125,0.0159,99161.94
99113.3,6221861800,6220,1,0,0.0125,0.0159,99161.94
99173.66,6221861800,3246,1,0,0.0125,0.0159,99231.71
99173.67,6221861800,14464,1,0,0.0125,0.0159,99231.71
99245.75,6221861800,4522,1,0,0.0125,0.0159,99301.43
99245.75,6221861800,6676,1,0,0.0125,0.0159,99301.43
99309.44,6221861800,5773,1,0,0.0125,0.0159,99369.18
99309.44,6221861800,10713,1,0,0.0125,0.0159,99369.18
99381.83,6221861800,4530,1,0,0.0125,0.0159,99435.03
99381.84,6221861800,9077,1,0,0.0125,0.0159,99435.03
99443.57,6221861800,4620,1,0,0.0125,0.0159,99496.23
99443.57,6221861800,9251,1,0,0.0125,0.0159,99496.23
99503.37,6221861800,4016,1,0,0.0125,0.0159,99561.65
99503.37,6221861800,7608,1,0,0.0125,0.0159,99561.65
99570.49,6221861800,5232,1,0,0.0125,0.0159,99629.92
99570.5,6221861800,8878,1,0,0.0125,0.0159,99629.92
99639.51,6221861800,4183,1,0,0.0125,0.0159,99710.76
99639.52,6221861800,12283,1,0,0.0125,0.0159,99710.76
99710.76,6260298560,512,1,4,0.0625,0.0318,99816.14
99830.01,6221861800,1090,1,0,0.0125,0.0159,99884.98
99830.02,6221861800,9135,1,0,0.0125,0.0159,99884.98
99933.35,6221861800,2218,1,0,0.0125,0.0159,99993.32
99933.42,6221861800,12380,1,0,0.0125,0.0159,99993.32
99993.32,6260443418,191,1,4,0.0625,0.0318,100145
100158,6221861800,223,1,0,0.0125,0.0159,100214
100158,6221861800,9536,1,0,0.0125,0.0159,100214
100208,6260518313,602,1,4,0.02637,0.009323,101092
100232,6221861800,957,1,0,0.0125,0.0159,100288
100232,6221861800,8839,1,0,0.0125,0.0159,100288
100313,6221861800,8066,1,0,0.0125,0.0159,100355
100313,6221861800,13103,1,0,0.0125,0.0159,100355
100369,6221861800,2191,1,0,0.0125,0.0159,100418
100369,6221861800,7988,1,0,0.0125,0.0159,100418
100432,6221861800,3020,1,0,0.0125,0.0159,100481
100432,6221861800,6590,1,0,0.0125,0.0159,100481
100498,6221861800,4448,1,0,0.0125,0.0159,100540
100498,6221861800,11149,1,0,0.0125,0.0159,100540
100553,6221861800,3836,1,0,0.0125,0.0159,100604
100553,6221861800,6405,1,0,0.0125,0.0159,100604
100629,6221861800,1751,1,0,0.0125,0.0159,100667
100629,6221861800,10001,1,0,0.0125,0.0159,100667
100687,6221861800,801,1,0,0.0125,0.0159,100733
100687,6221861800,9688,1,0,0.0125,0.0159,100733
100743,6221861800,3353,1,0,0.0125,0.0159,100790
100743,6221861800,8899,1,0,0.0125,0.0159,100790
100803,6221861800,4385,1,0,0.0125,0.0159,100859
100803,6260704659,1141,1,6,0.03125,0.007767,101774
100893,6221861800,642,1,0,0.0125,0.0159,100958
100968,6221861800,2403,1,0,0.0125,0.0159,101024
101044,6221861800,2209,1,0,0.0125,0.0159,101092
101044,6221861800,7754,1,0,0.0125,0.0159,101092
101103,6221861800,4506,1,0,0.0125,0.0159,101159
101172,6221861800,1473,1,0,0.0125,0.0159,101229
101172,6221861800,9913,1,0,0.0125,0.0159,101229
101241,6221861800,1712,1,0,0.0125,0.0159,101299
101241,6221861800,10832,1,0,0.0125,0.0159,101299
101316,6221861800,1481,1,0,0.0125,0.0159,101364
101329,6221861800,10659,1,0,0.0125,0.0159,101364
101379,6221861800,4356,1,0,0.0125,0.0159,101433
101379,6221861800,5553,1,0,0.0125,0.0159,101433
101444,6221861800,2459,1,0,0.0125,0.0159,101498
101444,6221861800,8437,1,0,0.0125,0.0159,101498
101513,6221861800,1509,1,0,0.0125,0.0159,101568
101513,6221861800,4524,1,0,0.0125,0.0159,101568
101526,6260931390,873,1,4,0.02661,0.009323,102458
101582,6221861800,3125,1,0,0.0125,0.0159,101634
101582,6221861800,9277,1,0,0.0125,0.0159,101634
101647,6221861800,4953,1,0,0.0125,0.0159,101707
101647,6221861800,7130,1,0,0.0125,0.0159,101707
101729,6221861800,2386,1,0,0.0125,0.0159,101774
101729,6221861800,10007,1,0,0.0125,0.0159,101774
101792,6221861800,4004,1,0,0.0125,0.0159,101841
101792,6221861800,7799,1,0,0.0125,0.0159,101841
101859,6261038934,23,1,4,0.0625,0.006218,102459
102470,6221861800,1038,1,0,0.0125,0.0159,102577
102470,6221861800,6012,1,0,0.0125,0.0159,102577
102540,6249834537,633,1,0,0.05627,0.0202,102586
102586,6261233056,486,1,4,0.0625,0.0318,102960
102598,6221861800,2700,1,0,0.0125,0.0159,102784
102990,6221861800,98,1,0,0.0125,0.0159,103105
102990,6261322058,1771,1,4,0.02615,0.009323,103810
103010,6221861800,7198,1,0,0.0125,0.0159,103105
103154,6221861800,2777,1,0,0.0125,0.0159,103219
103154,6221861800,11183,1,0,0.0125,0.0159,103219
103390,6221861800,6753,1,0,0.0125,0.0159,103438
103418,6221861800,11683,1,0,0.0125,0.0159,103485
103465,6221861800,3098,1,0,0.0125,0.0159,103539
103513,6221861800,10921,1,0,0.0125,0.0159,103614
103561,6260207654,477,1,0,0.0125,0.01553,105828
103621,6221861800,7676,1,0,0.0125,0.0159,103733
103737,6221861800,8973,1,0,0.0125,0.0159,103857
103812,6221861800,12318,1,0,0.0125,0.0159,103937
103864,6221861800,11615,1,0,0.0125,0.0159,103972
103942,6221861800,15474,1,0,0.0125,0.0159,104061
103976,6221861800,17553,1,0,0.0125,0.0159,104087
104065,6221861800,5621,1,0,0.0125,0.0159,104180
104090,6221861800,6172,1,0,0.0125,0.0159,104209
104183,6221861800,5319,1,0,0.0125,0.0159,104311
104218,6221861800,12067,1,0,0.0125,0.0159,104311
104278,6261322058,172,1,4,0.02615,0.009323,104586
104318,6221861800,6012,1,0,0.0125,0.0159,104416
104323,6221861800,592,1,0,0.0125,0.0159,104416
104419,6221861800,5361,1,0,0.0125,0.0159,104537
104419,6221861800,12422,1,0,0.0125,0.0159,104537
104544,6221861800,4387,1,0,0.0125,0.0159,104669
104544,6221861800,17585,1,0,0.0125,0.0159,104669
104678,6261808800,35,1,4,0.0625,0.0318,104917
104931,6221861800,2271,1,0,0.0125,0.0159,105035
104947,6221861800,13597,1,0,0.0125,0.0159,105068
105038,6221861800,8493,1,0,0.0125,0.0159,105147
105076,6221861800,4571,1,0,0.0125,0.0159,105147
105147,6261943291,34,1,4,0.0625,0.0318,105213
105154,6221861800,1378,1,0,0.0125,0.0159,105231
105222,6261941541,243,1,0,0.0625,0.0318,105324
105243,6221861800,890,1,0,0.0125,0.0159,105351
105324,6262004800,156,1,4,0.0625,0.0318,105581
105378,6221861800,4238,1,0,0.0125,0.0159,105441
105592,6221861800,2983,1,0,0.0125,0.0159,105675
105592,6221861800,9535,1,0,0.0125,0.0159,105675
105692,6221861800,719,1,0,0.0125,0.0159,105754
105692,6221861800,10926,1,0,0.0125,0.0159,105754
105762,6221861800,1345,1,0,0.0125,0.0159,105828
105762,6221861800,4293,1,0,0.0125,0.0159,105828
105828,6262164252,105,1,4,0.0625,0.0318,105953
105842,6221861800,2767,1,0,0.0125,0.0159,105883
105959,6221861800,2966,1,0,0.0125,0.0159,106033
105965,6221861800,11176,1,0,0.0125,0.0159,106033
106049,6221861800,5317,1,0,0.0125,0.0159,106104
106049,6221861800,12251,1,0,0.0125,0.0159,106104
106104,6262253986,600,1,4,0.0625,0.0318,106350
106115,6221861800,5324,1,0,0.0125,0.0159,106154
106159,6221861800,2621,1,0,0.0125,0.0159,106231
106246,6221861800,2267,1,0,0.0125,0.0159,106300
106312,6221861800,2324,1,0,0.0125,0.0159,106366
106363,6221861800,6671,1,0,0.0125,0.0159,106401
106383,6221861800,11676,1,0,0.0125,0.0159,106419
106417,6221861800,5953,1,0,0.0125,0.0159,106454
106447,6221861800,14678,1,0,0.0125,0.0159,106487
106464,6221861800,10663,1,0,0.0125,0.0159,106504
106493,6221861800,12720,1,0,0.0125,0.0159,106538
106517,6221861800,12000,1,0,0.0125,0.0159,106554
106552,6221861800,9759,1,0,0.0125,0.0159,106587
106560,6221861800,6037,1,0,0.0125,0.0159,106601
106663,6221861800,1849,1,0,0.0125,0.0159,106720
106679,6221861800,13071,1,0,0.0125,0.0159,106720
106720,6262451234,36,1,4,0.0625,0.0318,106835
106808,6221861800,3543,1,0,0.0125,0.0159,106888
106901,6262523794,384,1,4,0.0625,0.0318,107118
106923,6221861800,3366,1,0,0.0125,0.0159,106966
107030,6262555484,14,1,4,0.006248,0.01065,107293
107053,6221861800,3395,1,0,0.0125,0.0159,107091
107104,6221861800,1780,1,0,0.0125,0.0159,107149
107135,6221861800,6339,1,0,0.0125,0.0159,107177
107159,6262588483,55,1,4,0.03741,0.0318,112345
107254,6221861800,1221,1,0,0.0125,0.0159,107305
107368,6221861800,544,1,0,0.0125,0.0159,107416
107448,6221861800,680,1,0,0.0125,0.0159,107495
107563,6221861800,2588,1,0,0.0125,0.0159,107619
107698,6221861800,4954,1,0,0.0125,0.0159,107752
107774,6221861800,4255,1,0,0.0125,0.0159,107813
107871,6221861800,1822,1,0,0.0125,0.0159,107923
107936,6221861800,3279,1,0,0.0125,0.0159,107981
107996,6221861800,575,1,0,0.0125,0.0159,108034
108210,6221861800,1800,1,0,0.0125,0.0159,108254
108292,6221861800,2470,1,0,0.0125,0.0159,108338
108355,6221861800,238,1,0,0.0125,0.0159,108394
108421,6221861800,2790,1,0,0.0125,0.0159,108458
108476,6221861800,1822,1,0,0.0125,0.0159,108527
108541,6221861800,773,1,0,0.0125,0.0159,108593
108609,6221861800,1477,1,0,0.0125,0.0159,108658
108687,6221861800,320,1,0,0.0125,0.0159,108716
109056,6221861800,121,1,0,0.0125,0.0159,109101
109151,6221861800,4662,1,0,0.0125,0.0159,109198
109215,6221861800,5540,1,0,0.0125,0.0159,109265
109294,6221861800,4108,1,0,0.0125,0.0159,109333
109363,6221861800,1710,1,0,0.0125,0.0159,109419
109436,6221861800,670,1,0,0.0125,0.0159,109490
109504,6221861800,1583,1,0,0.0125,0.0159,109561
109583,6221861800,3587,1,0,0.0125,0.0159,109622
109630,6221861800,1803,1,0,0.0125,0.0159,109688
109694,6221861800,2059,1,0,0.0125,0.0159,109738
109701,6263259898,328,1,4,0.03125,0.007767,109981
109753,6221861800,612,1,0,0.0125,0.0159,109816
109826,6221861800,1378,1,0,0.0125,0.0159,109884
109893,6221861800,3311,1,0,0.0125,0.0159,109949
109952,6221861800,1530,1,0,0.0125,0.0159,110013
110018,6221861800,3132,1,0,0.0125,0.0159,110066
110073,6221861800,4049,1,0,0.0125,0.0159,110138
110147,6221861800,1219,1,0,0.0125,0.0159,110207
110220,6221861800,4678,1,0,0.0125,0.0159,110270
110276,6221861800,1069,1,0,0.0125,0.0159,110331
110338,6221861800,1035,1,0,0.0125,0.0159,110393
110409,6221861800,1545,1,0,0.0125,0.0159,110460
110469,6221861800,3461,1,0,0.0125,0.0159,110530
110546,6221861800,516,1,0,0.0125,0.0159,110600
110610,6221861800,857,1,0,0.0125,0.0159,110648
110654,6221861800,2456,1,0,0.0125,0.0159,110710
110716,6221861800,1712,1,0,0.0125,0.0159,110771
110777,6221861800,2763,1,0,0.0125,0.0159,110833
110836,6221861800,2874,1,0,0.0125,0.0159,110897
110902,6221861800,2070,1,0,0.0125,0.0159,110992
110921,6260207654,4,1,0,0.0125,0.01553,113097
110998,6221861800,1404,1,0,0.0125,0.0159,111056
111064,6221861800,2618,1,0,0.0125,0.0159,111117
111122,6221861800,615,1,0,0.0125,0.0159,111176
111179,6221861800,779,1,0,0.0125,0.0159,111233
111236,6221861800,898,1,0,0.0125,0.0159,111299
111317,6221861800,3273,1,0,0.0125,0.0159,111363
111368,6221861800,494,1,0,0.0125,0.0159,111429
111435,6221861800,780,1,0,0.0125,0.0159,111489
111492,6221861800,1325,1,0,0.0125,0.0159,111549
111563,6221861800,1360,1,0,0.0125,0.0159,111614
111619,6221861800,986,1,0,0.0125,0.0159,111678
111686,6221861800,1372,1,0,0.0125,0.0159,111739
111746,6221861800,1807,1,0,0.0125,0.0159,111801
111785,6263922859,224,1,2,0.006248,0.007767,113595
111822,6221861800,2998,1,0,0.0125,0.0159,111881
111898,6263940386,30,1,2,0.006248,0.007767,113498
111908,6221861800,4158,1,0,0.0125,0.0159,111945
111958,6221861800,2268,1,0,0.0125,0.0159,112015
112026,6221861800,927,1,0,0.0125,0.0159,112082
112133,6221861800,560,1,0,0.0125,0.0159,112170
112179,6221861800,3691,1,0,0.0125,0.0159,112240
112253,6221861800,413,1,0,0.0125,0.0159,112312
112380,6221861800,4260,1,0,0.0125,0.0159,112430
112380,6221861800,8762,1,0,0.0125,0.0159,112430
112492,6221861800,2711,1,0,0.0125,0.0159,112529
112492,6221861800,12513,1,0,0.0125,0.0159,112530
112558,6238340468,1680,1,0,0.0625,0.03961,113097
113068,6264344096,48,1,4,0.0625,0.03107,113212
113097,6264344268,125,1,4,0.0625,0.03107,113212
113231,6264388907,449,1,4,0.02499,0.02515,116105
113238,6260207654,249,1,0,0.0125,0.01553,113361
113254,6249834537,153,1,0,0.05627,0.0202,113323
113361,6264425865,277,1,4,0.0625,0.03107,113425
113506,6183750753,15,1,0,0.125,0.03339,113548
113548,6264473578,197,1,4,0.0625,0.03107,113636
113617,6263922859,680,1,2,0.006248,0.007767,113778
113685,6238340468,723,1,0,0.0625,0.03961,120171
114211,6264610203,96,1,4,0.0625,0.0159,114287
114348,6264636008,44,1,4,0.0625,0.0159,114439
114924,5567180387,127,1,0,0.05627,0.0318,134367
116935,6238340468,2872,1,0,0.0625,0.03961,119932
119932,6265540086,530,1,4,0.0625,0.0318,119985
119937,6260207654,388,1,0,0.0125,0.01553,120171
119996,6249832520,177,1,0,0.05627,0.0318,120023
120023,6265603821,581,1,4,0.0625,0.0318,120260
120171,6265566902,4197,1,1,0.009369,0.0318,120703
120263,6265188993,1854,1,1,0.0625,0.0318,120598
120598,6265706395,728,1,4,0.0625,0.0318,120672
120675,6183750753,56,1,0,0.125,0.03339,125092
120765,6260207654,275,1,0,0.0125,0.01553,123115
123115,6266168404,772,1,4,0.0625,0.0318,123443
123615,6238340468,1782,1,0,0.0625,0.03961,123673
123673,6266247654,755,1,4,0.0625,0.0318,123826
123726,6266284470,14,1,0,0.006248,0.004021,123874
123855,6265188993,1164,1,1,0.0625,0.0318,127205
124915,6260207654,447,1,0,0.0125,0.01553,125092
125092,6266629018,966,1,4,0.0625,0.0318,125172
125104,6260207654,424,1,0,0.0125,0.01553,127249
125174,6266608062,109,1,0,0.0625,0.0318,125252
125252,6266662727,118,1,4,0.0625,0.0318,125675
125676,6266686751,132,1,0,0.0625,0.0318,126020
126058,6266814561,17,1,4,0.0625,0.0318,126112
126118,6266816347,620,1,0,0.0625,0.0318,126203
126203,6266851390,841,1,4,0.0625,0.0318,126391
127249,6267016612,58,1,4,0.0625,0.0318,127355
127343,6260207654,489,1,0,0.0125,0.01553,129396
127361,6265188993,1184,1,1,0.0625,0.0318,127403
127652,6267077575,564,1,4,0.0625,0.0318,127815
127673,6267088949,16,1,0,0.006248,0.001554,128061
127969,6267158489,238,1,4,0.0625,0.0318,128186
128124,6267185939,13,1,4,0.0625,0.0159,128246
128259,6267196404,989,1,4,0.0625,0.0318,128518
128546,6267234438,778,1,0,0.0625,0.0318,128680
128704,6267282194,215,1,4,0.0625,0.0318,129032
129099,6267370688,247,1,4,0.0625,0.0318,129166
129210,6267394502,820,1,4,0.0625,0.0318,129495
129396,6267416165,1953,1,1,0.0625,0.0318,134367
129410,6257669344,1334,1,0,0,0.003109,171389
129500,6267457175,178,1,0,0.0625,0.0318,129519
129531,6260207654,91,1,0,0.0125,0.01553,131882
129644,6267486438,1,1,4,0.0625,0.0159,130348
130456,6267644340,635,1,4,0.0625,0.0318,130579
130594,6267676044,939,1,4,0.0625,0.0318,130805
130807,6267710628,952,1,0,0.0625,0.0318,130882
130987,6267760632,809,1,4,0.0625,0.0318,131075
131077,6267779127,197,1,0,0.0625,0.0318,131273
131273,6267799869,541,1,4,0.0625,0.0318,131658
131685,6267779127,445,1,0,0.0625,0.0318,132146
132152,6267779127,548,1,0,0.0625,0.0318,132284
132309,6267943186,617,1,4,0.0625,0.0318,132542
132546,6238340468,1438,1,0,0.0625,0.03961,132737
132737,6268064434,281,1,4,0.0625,0.0318,132855
132859,6238340468,524,1,0,0.0625,0.03961,132954
132954,6268095119,449,1,4,0.0625,0.0318,133133
133134,6238340468,695,1,0,0.0625,0.03961,133225
133225,6268128371,947,1,4,0.0625,0.0318,133318
133320,6238340468,2481,1,0,0.0625,0.03961,133423
133387,6268151907,868,1,4,0.006248,0.003712,134282
133423,6268154743,58,1,4,0.0625,0.0318,133528
133545,6238340468,127,1,0,0.0625,0.03961,133608
133608,6268203611,86,1,4,0.0625,0.0318,133890
133892,6035592839,11,1,0,0.0625,0.04773,134013
134367,6268313068,2104,1,4,0.0625,0.0318,135299
135310,6268473831,46,1,4,0.0625,0.0318,135657
135666,5567180387,173,1,0,0.05627,0.0318,135813
135813,6268579701,500,1,4,0.0625,0.0318,135893
135898,6238340468,2545,1,0,0.0625,0.03961,135963
135963,6268609895,247,1,4,0.0625,0.0318,136469
136471,6238340468,2927,1,0,0.0625,0.03961,136709
136557,6268732704,47,1,4,0.0125,0.004662,136930
136709,6268745464,279,1,4,0.0625,0.0318,136930
136932,5567180387,151,1,0,0.05627,0.0318,136993
136993,6268793077,335,1,4,0.0625,0.0318,137169
137143,6268818600,41,1,0,0.0125,0.002998,137246
137246,6268822617,720,1,4,0.0625,0.0318,137462
137553,6268859180,730,1,4,0.0625,0.0318,137636
137718,6268875518,161,1,4,0.0625,0.0318,138255
138550,6268974598,736,1,0,0.009369,0.01553,138842
140386,6269229815,117,1,0,0.009369,0.01553,140621
140538,6269257022,167,1,4,0.0238,0.02704,155049
140898,6269290001,41,1,0,0.009369,0.007767,140981
144057,5402488769,2227,1,0,0.0006247,0.003883,209182
159144,6271582172,780,1,4,0.02499,0.02515,159556
166832,6272479110,1539,1,4,0.02499,0.02545,168964
167268,6272559939,31,1,0,0.006248,0.001554,167546
171864,6273103644,1168,1,4,0.02499,0.01724,172540
171881,6273105778,206,1,4,0.02499,0.0209,172648
172112,6273211450,1491,1,0,0,0.003109,177162
175210,6273527780,7453,1,4,0.03723,0.03979,187296
176438,6273718779,443,1,4,0.02499,0.02545,176983
177162,6273789222,981,1,4,0.02499,0.03339,177853
178259,6273940834,1748,1,4,0.02499,0.02545,179286
180298,6274303624,73,1,4,0.02499,0.03339,180467
180760,6273527780,10393,1,4,0.03723,0.03979,187296
186110,6274931396,275,1,2,0.006248,0.007767,193638
187870,6275140775,2001,1,4,0.009369,0.04773,188474
189274,6275364046,70,1,4,0.0625,0.0318,191017
191464,6275615934,120,1,4,0.006248,0.003696,192514
193533,6275900742,86,1,0,0.05627,0.0318,208902
196965,6276226189,332,1,4,0.03748,0.03979,199107
199414,6276226189,908,1,4,0.03748,0.03979,199466
199772,6276592735,42,1,4,0.03125,0.009323,202523
200907,6276709327,112,1,4,0.006248,0.01073,201254
201270,6276763513,27,1,2,0.006248,0.004395,205012
201713,6276801514,44,1,4,0.02499,0.02179,202102
203546,6275903028,419,1,0,0.05627,0.0202,208902
207286,6277397253,37,1,4,0.0125,0.004662,207514
208902,6277547517,115,1,4,0.0625,0.0318,223235
208911,6275903028,153,1,0,0.05627,0.0202,209182
209182,6277581934,851,1,4,0.0625,0.0318,210257
210322,6277738095,187,1,4,0.0625,0.0318,210432
210484,6277761017,187,1,4,0.07812,0.0159,211805
211493,6277838095,170,1,0,0.03101,0.002953,211669
211949,6277784988,473,1,4,0.02499,0.02545,213353
212014,6277305793,174,1,0,0.06873,0.01193,217986
213798,6278034529,1468,1,0,0.0332,0.01553,213934
214985,6278155673,430,1,0,0.0332,0.01553,215508
215559,6278155673,211,1,0,0.0332,0.01553,215600
216834,6278281227,179,1,1,0.009369,0.02332,216940
217137,6278351962,1374,1,1,0.009369,0.02332,217235
217845,6278410258,473,1,0,0.03284,0.01553,217940
217940,6278069248,7965,1,4,0.03748,0.02545,218965
217986,6278452650,740,1,1,0.0625,0.0318,226938
218973,6278571098,123,1,0,0.03094,0.002953,219146
219462,6278609363,360,1,0,0.009369,0.008408,219633
224193,6279059863,12,1,4,0.02252,0.02704,225162
224193,6279059939,0,1,4,0.02588,0.02704,224973
226353,6279173885,174,1,0,0.0125,0.002422,226746
227208,6279203829,602,1,4,0.03125,0.01398,227302
227740,6279038753,870,1,1,0.0625,0.0318,228899
229106,6278624411,4977,1,0,0.03748,0.03107,230580
229234,6279357256,40,1,0,0.0125,0.009811,229421
231191,6279448522,75,1,0,0.009369,0.007523,231330
231455,6279464973,321,1,0,0.009369,0.008347,231576
234509,6279601972,613,1,0,0.03748,0.01553,235331
236383,6279738422,462,1,0,0.0125,0.006104,236804
236991,6279787935,328,1,0,0.009369,0.005486,237072
239343,6279965978,11,1,4,0.0625,0.0159,239434
239710,6279983973,533,1,4,0.0625,0.0318,239871
241303,6280061658,1174,1,0,0.03748,0.01553,243312
243312,6278957267,2765,1,4,0.03693,0.03979,246306
244949,6280325466,181,1,0,0.0125,0.005905,245720
